waveform.vcd
$date
	Wed Mar 22 11:58:38 2023
$end
$version
	Icarus Verilog
$end
$timescale
	1s
$end
$scope module cpu_tb $end
$scope module dut $end
$var wire 16 ! data_in [15:0] $end
$var wire 16 " data_out [15:0] $end
$var wire 1 # enable $end
$var wire 1 $ rst $end
$var wire 16 % pc [15:0] $end
$var wire 12 & memory_addr [11:0] $end
$var wire 1 ' is_store $end
$var wire 1 ( is_load_alu $end
$var wire 1 ) is_load $end
$var wire 1 * is_immediate $end
$var wire 16 + instruction_data [15:0] $end
$var wire 4 , decoder_opcode [3:0] $end
$var wire 1 - clk $end
$var wire 16 . alu_out [15:0] $end
$var wire 4 / alu_opcode [3:0] $end
$var wire 16 0 alu_op [15:0] $end
$scope module alu0 $end
$var wire 1 $ rst $end
$var wire 4 1 opcode [3:0] $end
$var wire 1 ( load $end
$var wire 16 2 in_val [15:0] $end
$var wire 1 - clk $end
$var reg 16 3 acc [15:0] $end
$var reg 16 4 out_val [15:0] $end
$upscope $end
$scope module decoder0 $end
$var wire 1 $ rst $end
$var wire 4 5 opcode [3:0] $end
$var wire 16 6 instruction [15:0] $end
$var wire 1 - clk $end
$var wire 12 7 addr [11:0] $end
$var reg 4 8 alu_op [3:0] $end
$var reg 1 * is_immediate $end
$var reg 1 ) is_load $end
$var reg 1 ' is_store $end
$var reg 12 9 reg_addr [11:0] $end
$upscope $end
$scope module fetch0 $end
$var wire 12 : addr [11:0] $end
$var wire 16 ; alu_result [15:0] $end
$var wire 16 < data_in [15:0] $end
$var wire 1 * is_immediate $end
$var wire 1 ) is_load_in $end
$var wire 1 ' is_store_in $end
$var wire 4 = opcode_in [3:0] $end
$var wire 1 $ rst $end
$var wire 1 - clk $end
$var reg 1 ( is_load_out $end
$var reg 4 > opcode_out [3:0] $end
$var reg 2 ? store_history [1:0] $end
$var reg 16 @ value [15:0] $end
$upscope $end
$scope module pc0 $end
$var wire 16 A pc [15:0] $end
$var wire 1 $ rst $end
$var wire 1 - clk $end
$var reg 16 B counter [15:0] $end
$var reg 1 C halt $end
$var reg 16 D instruction [15:0] $end
$upscope $end
$upscope $end
$upscope $end
$scope module cpu_tb $end
$scope module dut $end
$scope module fetch0 $end
$var reg 16 E \registers[1] [15:0] $end
$upscope $end
$upscope $end
$upscope $end
$scope module cpu_tb $end
$scope module dut $end
$scope module fetch0 $end
$var reg 16 F \registers[2] [15:0] $end
$upscope $end
$upscope $end
$upscope $end
$scope module cpu_tb $end
$scope module dut $end
$scope module fetch0 $end
$var reg 16 G \registers[3] [15:0] $end
$upscope $end
$upscope $end
$upscope $end
$scope module cpu_tb $end
$scope module dut $end
$scope module fetch0 $end
$var reg 16 H \registers[4] [15:0] $end
$upscope $end
$upscope $end
$upscope $end
$scope module cpu_tb $end
$scope module dut $end
$scope module fetch0 $end
$var reg 16 I \registers[5] [15:0] $end
$upscope $end
$upscope $end
$upscope $end
$scope module cpu_tb $end
$scope module dut $end
$scope module fetch0 $end
$var reg 12 J \addr_history[0] [11:0] $end
$upscope $end
$upscope $end
$upscope $end
$scope module cpu_tb $end
$scope module dut $end
$scope module fetch0 $end
$var reg 12 K \addr_history[1] [11:0] $end
$upscope $end
$upscope $end
$upscope $end
$enddefinitions $end
#0
$dumpvars
b0 K
b0 J
b101 I
b100 H
b11 G
b10 F
b1 E
bx D
xC
bx B
bx A
bx @
b0 ?
bx >
bx =
b0 <
bx ;
bx :
bx 9
bx 8
bx 7
bx 6
bx 5
bx 4
bx 3
bx 2
bx 1
bx 0
bx /
bx .
0-
bx ,
bx +
x*
x)
x(
x'
bx &
bx %
1$
0#
b0 "
b0 !
$end
#5
b0 ,
b0 8
b0 =
bx K
b0 J
b0x ?
1-
#10
0-
0$
#15
b0 7
b0 5
b0 3
b0 .
b0 4
b0 ;
b0 /
b0 1
b0 >
0(
b0 0
b0 2
b0 @
0'
0)
b0 &
b0 9
b0 :
0*
0C
b0 +
b0 6
b0 D
b0 %
b0 A
b0 B
1-
#20
0-
1$
#25
b1 %
b1 A
b1 B
b0 K
bx J
bx0 ?
1-
#30
0-
1#
#35
b10 7
b111 5
b0 K
b0 J
b0 ?
b111000000000010 +
b111000000000010 6
b111000000000010 D
b10 %
b10 A
b10 B
1-
#40
0-
0#
#45
b0 7
b0 5
b0 +
b0 6
b0 D
b11 %
b11 A
b11 B
b10 &
b10 9
b10 :
1*
b1 ,
b1 8
b1 =
b0 K
b0 J
1-
#50
0-
#55
b11110001 7
b1 5
b10 K
b0 J
b1 /
b1 1
b1 >
b10 0
b10 2
b10 @
b0 &
b0 9
b0 :
0*
b0 ,
b0 8
b0 =
b1000011110001 +
b1000011110001 6
b1000011110001 D
b100 %
b100 A
b100 B
1-
#60
0-
#65
b100 7
b10 5
b10000000000100 +
b10000000000100 6
b10000000000100 D
b101 %
b101 A
b101 B
1)
b11110001 &
b11110001 9
b11110001 :
1*
b0 K
b10 J
b0 /
b0 1
b0 >
b0 0
b0 2
b0 @
b10 3
1-
#70
0-
#75
b101 7
b10 .
b10 4
b10 ;
b11110001 K
b0 J
1(
b11110001 0
b11110001 2
b11110001 @
0)
b100 &
b100 9
b100 :
0*
b1 ,
b1 8
b1 =
b10000000000101 +
b10000000000101 6
b10000000000101 D
b110 %
b110 A
b110 B
1-
#80
0-
#85
b110 7
b10000000000110 +
b10000000000110 6
b10000000000110 D
b111 %
b111 A
b111 B
b101 &
b101 9
b101 :
b100 K
b11110001 J
b1 /
b1 1
b1 >
0(
b100 0
b100 2
b100 @
b11110001 3
1-
#90
0-
#95
b111 7
b11110001 .
b11110001 4
b11110001 ;
b11110101 3
b101 K
b100 J
b101 0
b101 2
b101 @
b110 &
b110 9
b110 :
b10000000000111 +
b10000000000111 6
b10000000000111 D
b1000 %
b1000 A
b1000 B
1-
#100
0-
#105
b0 7
b0 5
b0 +
b0 6
b0 D
b1001 %
b1001 A
b1001 B
b111 &
b111 9
b111 :
b110 K
b101 J
b110 0
b110 2
b110 @
b11110101 .
b11110101 4
b11110101 ;
b11111010 3
1-
#110
0-
#115
b101 7
b100 5
b11111010 .
b11111010 4
b11111010 ;
b100000000 3
b111 K
b110 J
b111 0
b111 2
b111 @
b0 &
b0 9
b0 :
b0 ,
b0 8
b0 =
b100000000000101 +
b100000000000101 6
b100000000000101 D
b1010 %
b1010 A
b1010 B
1-
#120
0-
#125
b0 7
b0 5
b0 +
b0 6
b0 D
b1011 %
b1011 A
b1011 B
1'
b101 &
b101 9
b101 :
b0 K
b111 J
b0 /
b0 1
b0 >
b0 0
b0 2
b0 @
b100000000 .
b100000000 4
b100000000 ;
b100000111 3
1-
#130
0-
#135
b111111111111 7
b1111 5
b100000111 .
b100000111 4
b100000111 ;
b101 K
b0 J
b1 ?
b101 0
b101 2
b101 @
0'
b0 &
b0 9
b0 :
b1111111111111111 +
b1111111111111111 6
b1111111111111111 D
b1100 %
b1100 A
b1100 B
1C
1-
#140
0-
#145
b111111111111 &
b111111111111 9
b111111111111 :
b100000111 I
b0 K
b101 J
b10 ?
b0 0
b0 2
b0 @
1-
#150
0-
#155
b111111111111 K
b0 J
b0 ?
bx 0
bx 2
bx @
1-
#160
0-
#165
b111111111111 K
b111111111111 J
1-
#170
0-
#175
b111111111111 K
b111111111111 J
1-
#180
0-
#185
b111111111111 K
b111111111111 J
1-
#190
0-
#195
b111111111111 K
b111111111111 J
1-
#200
0-
#205
b111111111111 K
b111111111111 J
1-
#210
0-
#215
b111111111111 K
b111111111111 J
1-
#220
0-
#225
b111111111111 K
b111111111111 J
1-
#230
0-
#235
b111111111111 K
b111111111111 J
1-
#240
0-
#245
b111111111111 K
b111111111111 J
1-
#250
0-
#255
b111111111111 K
b111111111111 J
1-
#260
0-
#265
b111111111111 K
b111111111111 J
1-
#270
0-
#275
b111111111111 K
b111111111111 J
1-
#280
0-
#285
b111111111111 K
b111111111111 J
1-
#290
0-
#295
b111111111111 K
b111111111111 J
1-
#300
0-
#305
b111111111111 K
b111111111111 J
1-
#310
0-
#315
b111111111111 K
b111111111111 J
1-
#320
0-
#325
b111111111111 K
b111111111111 J
1-
#330
0-
#335
b111111111111 K
b111111111111 J
1-
#340
0-
#345
b111111111111 K
b111111111111 J
1-
#350
0-
#355
b111111111111 K
b111111111111 J
1-
#360
0-
#365
b111111111111 K
b111111111111 J
1-
#370
0-
#375
b111111111111 K
b111111111111 J
1-
#380
0-
#385
b111111111111 K
b111111111111 J
1-
#390
0-
#395
b111111111111 K
b111111111111 J
1-
#400
0-
#405
b111111111111 K
b111111111111 J
1-
#410
0-
#415
b111111111111 K
b111111111111 J
1-
#420
0-
#425
b111111111111 K
b111111111111 J
1-
#430
0-
#435
b111111111111 K
b111111111111 J
1-
#440
0-
#445
b111111111111 K
b111111111111 J
1-
#450
0-
#455
b111111111111 K
b111111111111 J
1-
#460
0-
#465
b111111111111 K
b111111111111 J
1-
#470
0-
#475
b111111111111 K
b111111111111 J
1-
#480
0-
#485
b111111111111 K
b111111111111 J
1-
#490
0-
#495
b111111111111 K
b111111111111 J
1-
#500
0-
#505
b111111111111 K
b111111111111 J
1-
#510
0-
#515
b111111111111 K
b111111111111 J
1-
#520
0-
#525
b111111111111 K
b111111111111 J
1-
#530
0-
#535
b111111111111 K
b111111111111 J
1-
#540
0-
#545
b111111111111 K
b111111111111 J
1-
#550
0-
#555
b111111111111 K
b111111111111 J
1-
#560
0-
#565
b111111111111 K
b111111111111 J
1-
#570
0-
#575
b111111111111 K
b111111111111 J
1-
#580
0-
#585
b111111111111 K
b111111111111 J
1-
#590
0-
#595
b111111111111 K
b111111111111 J
1-
#600
0-
#605
b111111111111 K
b111111111111 J
1-
#610
0-
#615
b111111111111 K
b111111111111 J
1-
#620
0-
#625
b111111111111 K
b111111111111 J
1-
#630
0-
#635
b111111111111 K
b111111111111 J
1-
#640
0-
#645
b111111111111 K
b111111111111 J
1-
#650
0-
#655
b111111111111 K
b111111111111 J
1-
#660
0-
#665
b111111111111 K
b111111111111 J
1-
#670
0-
#675
b111111111111 K
b111111111111 J
1-
#680
0-
#685
b111111111111 K
b111111111111 J
1-
#690
0-
#695
b111111111111 K
b111111111111 J
1-
#700
0-
#705
b111111111111 K
b111111111111 J
1-
#710
0-
#715
b111111111111 K
b111111111111 J
1-
#720
0-
#725
b111111111111 K
b111111111111 J
1-
#730
0-
#735
b111111111111 K
b111111111111 J
1-
#740
0-
#745
b111111111111 K
b111111111111 J
1-
#750
0-
#755
b111111111111 K
b111111111111 J
1-
#760
0-
#765
b111111111111 K
b111111111111 J
1-
#770
0-
#775
b111111111111 K
b111111111111 J
1-
#780
0-
#785
b111111111111 K
b111111111111 J
1-
#790
0-
#795
b111111111111 K
b111111111111 J
1-
#800
0-
#805
b111111111111 K
b111111111111 J
1-
#810
0-
#815
b111111111111 K
b111111111111 J
1-
#820
0-
#825
b111111111111 K
b111111111111 J
1-
#830
0-
#835
b111111111111 K
b111111111111 J
1-
#840
0-
#845
b111111111111 K
b111111111111 J
1-
#850
0-
#855
b111111111111 K
b111111111111 J
1-
#860
0-
#865
b111111111111 K
b111111111111 J
1-
#870
0-
#875
b111111111111 K
b111111111111 J
1-
#880
0-
#885
b111111111111 K
b111111111111 J
1-
#890
0-
#895
b111111111111 K
b111111111111 J
1-
#900
0-
#905
b111111111111 K
b111111111111 J
1-
#910
0-
#915
b111111111111 K
b111111111111 J
1-
#920
0-
#925
b111111111111 K
b111111111111 J
1-
#930
0-
#935
b111111111111 K
b111111111111 J
1-
#940
0-
#945
b111111111111 K
b111111111111 J
1-
#950
0-
#955
b111111111111 K
b111111111111 J
1-
#960
0-
#965
b111111111111 K
b111111111111 J
1-
#970
0-
#975
b111111111111 K
b111111111111 J
1-
#980
0-
#985
b111111111111 K
b111111111111 J
1-
#990
0-
#995
b111111111111 K
b111111111111 J
1-
#1000
0-
#1005
b111111111111 K
b111111111111 J
1-
#1010
0-
#1015
b111111111111 K
b111111111111 J
1-
#1020
0-
#1025
b111111111111 K
b111111111111 J
1-
#1030
0-
#1035
b111111111111 K
b111111111111 J
1-
